Systematic Literature Review
…
         keywords=str_replace(keywords, "latent dirichlet allocation model", "lda"),
         keywords=str_replace(keywords, "machine learning", "ml"),         
         keywords=str_replace(keywords, "machine learning and linguistic analysis", "ml"),
         keywords=str_replace(keywords, "big data", "bigdata"),
         keywords=str_replace(keywords, "liwc", "liwc"),
         keywords=str_replace(keywords, "linguistic inquiry and word count liwc", "liwc"),
         keywords=str_replace(keywords, "bibliometrics", "bibliometric"),
         keywords=str_replace(keywords, "\\(", ""),
         keywords=str_replace(keywords, "\\)", "")
  )
foo<-key1%>% group_by(keywords)%>%
  summarize(n=n())
foo

# A tibble: 1,151 × 2
   keywords                                 n
   <chr>                                <int>
 1 10-k reports                             1
 2 abstract vs. concrete mindsets           1
 3 accommodation                            1
 4 accommodative and defensive response     1
 5 acoustic                                 1
 6 actionable insights                      1
 7 adaptive clothing                        1
 8 advanced analytics                       1
 9 advertising                              4
10 advertising slogans                      1
# ℹ 1,141 more rows
…
